#
# A fatal error has been detected by the Java Runtime Environment:
#
#  EXCEPTION_ACCESS_VIOLATION (0xc0000005) at pc=0x000000006eb8cbc1, pid=2536, tid=2676
#
# JRE version: Java(TM) SE Runtime Environment (8.0_60-b27) (build 1.8.0_60-b27)
# Java VM: Java HotSpot(TM) 64-Bit Server VM (25.60-b23 mixed mode windows-amd64 compressed oops)
# Problematic frame:
# V  [jvm.dll+0x4dcbc1]
#
# Failed to write core dump. Minidumps are not enabled by default on client versions of Windows
#
# If you would like to submit a bug report, please visit:
#   http://bugreport.java.com/bugreport/crash.jsp
#

---------------  T H R E A D  ---------------

Current thread (0x00000000562aa800):  JavaThread "C2 CompilerThread1" daemon [_thread_in_native, id=2676, stack(0x0000000058110000,0x0000000058210000)]

siginfo: ExceptionCode=0xc0000005, reading address 0x0000010062ef0a00

Registers:
RAX=0x000000005cc4b350, RBX=0x00000000000000a6, RCX=0x000000005feb3590, RDX=0x000000005feb37a0
RSP=0x000000005820c290, RBP=0x000000005820c2d9, RSI=0x000000005820cfb0, RDI=0x0000000000000000
R8 =0x000000005feb3590, R9 =0x0000000057d895a0, R10=0x0000000000000003, R11=0x0000000000000669
R12=0x0000010062ef0a00, R13=0x000000005820c600, R14=0x000000005feb37a0, R15=0x0000000000000001
RIP=0x000000006eb8cbc1, EFLAGS=0x0000000000010206

Top of Stack: (sp=0x000000005820c290)
0x000000005820c290:   00000000000000a6 000000005820c2d9
0x000000005820c2a0:   000000005820cfb0 0000000000000000
0x000000005820c2b0:   000000005a61c320 000000005a65ee80
0x000000005820c2c0:   000000005a61bf80 000000005629f670
0x000000005820c2d0:   000000006ed1d228 000000005629f670
0x000000005820c2e0:   0000000000000200 00000000665d9020
0x000000005820c2f0:   0000000059bd96f0 0000000000000000
0x000000005820c300:   0000000000000004 0000000000000000
0x000000005820c310:   0000000000000010 000000005820c600
0x000000005820c320:   0000000000000001 0000000000000028
0x000000005820c330:   000000005820c390 000000006eb8f588
0x000000005820c340:   000000005820c600 000000005a8bb200
0x000000005820c350:   000000005820c390 000000005820cfb0
0x000000005820c360:   0000000000100000 0000000000000000
0x000000005820c370:   0000000000000000 0000000000000000
0x000000005820c380:   0000000000000000 000000006eb89abc 

Instructions: (pc=0x000000006eb8cbc1)
0x000000006eb8cba1:   4c 63 f8 0f 88 bc 09 00 00 66 0f 1f 44 00 00 49
0x000000006eb8cbb1:   8b 46 08 4e 8b 24 f8 4d 85 e4 0f 84 a4 06 00 00
0x000000006eb8cbc1:   49 8b 04 24 49 8b cc ff 10 49 8b 8d 38 0a 00 00
0x000000006eb8cbd1:   8b d8 80 3c 0b 00 0f 84 92 02 00 00 48 8b 45 d7 


Register to memory mapping:

RAX=0x000000005cc4b350 is an unknown value
RBX=0x00000000000000a6 is an unknown value
RCX=0x000000005feb3590 is an unknown value
RDX=0x000000005feb37a0 is an unknown value
RSP=0x000000005820c290 is pointing into the stack for thread: 0x00000000562aa800
RBP=0x000000005820c2d9 is pointing into the stack for thread: 0x00000000562aa800
RSI=0x000000005820cfb0 is pointing into the stack for thread: 0x00000000562aa800
RDI=0x0000000000000000 is an unknown value
R8 =0x000000005feb3590 is an unknown value
R9 =0x0000000057d895a0 is an unknown value
R10=0x0000000000000003 is an unknown value
R11=0x0000000000000669 is an unknown value
R12=0x0000010062ef0a00 is an unknown value
R13=0x000000005820c600 is pointing into the stack for thread: 0x00000000562aa800
R14=0x000000005feb37a0 is an unknown value
R15=0x0000000000000001 is an unknown value


Stack: [0x0000000058110000,0x0000000058210000],  sp=0x000000005820c290,  free space=1008k
Native frames: (J=compiled Java code, j=interpreted, Vv=VM code, C=native code)
V  [jvm.dll+0x4dcbc1]
V  [jvm.dll+0x4df588]
V  [jvm.dll+0x46d331]
V  [jvm.dll+0x46fb32]
V  [jvm.dll+0x452cb2]
V  [jvm.dll+0xa4662]
V  [jvm.dll+0xa4f9f]
V  [jvm.dll+0x243134]
V  [jvm.dll+0x299f6a]
C  [msvcr100.dll+0x21d9f]
C  [msvcr100.dll+0x21e3b]
C  [kernel32.dll+0x1652d]
C  [ntdll.dll+0x2c541]


Current CompileTask:
C2: 267732 22933       4       org.gradle.api.internal.file.CompositeFileCollection::getFiles (124 bytes)


---------------  P R O C E S S  ---------------

Java Threads: ( => current thread )
  0x000000005c714800 JavaThread "Task worker for ':' Thread 3" [_thread_blocked, id=2724, stack(0x0000000060c00000,0x0000000060d00000)]
  0x000000005c70f800 JavaThread "Task worker for ':' Thread 2" [_thread_blocked, id=1500, stack(0x0000000066b80000,0x0000000066c80000)]
  0x000000005c713000 JavaThread "Task worker for ':'" [_thread_blocked, id=1808, stack(0x000000005f2e0000,0x000000005f3e0000)]
  0x000000005c714000 JavaThread "Cache worker for Build Output Cleanup Cache (E:\nagaraj\Casperon Projects\HandyPro\HandyPro User New\HandyPro\.gradle\buildOutputCleanup)" [_thread_blocked, id=3712, stack(0x0000000064f50000,0x0000000065050000)]
  0x000000005c70e800 JavaThread "Cache worker for task history cache (E:\nagaraj\Casperon Projects\HandyPro\HandyPro User New\HandyPro\.gradle\4.6\taskHistory)" [_thread_blocked, id=2816, stack(0x0000000061400000,0x0000000061500000)]
  0x000000005c70e000 JavaThread "Cache worker for file content cache (E:\nagaraj\Casperon Projects\HandyPro\HandyPro User New\HandyPro\.gradle\4.6\fileContent)" [_thread_blocked, id=1796, stack(0x0000000062400000,0x0000000062500000)]
  0x000000005ccd6000 JavaThread "Build operations Thread 4" [_thread_blocked, id=3216, stack(0x0000000060790000,0x0000000060890000)]
  0x000000005ccd7800 JavaThread "Build operations Thread 3" [_thread_blocked, id=3208, stack(0x0000000061170000,0x0000000061270000)]
  0x000000005ccd8800 JavaThread "Build operations Thread 2" [_thread_blocked, id=2180, stack(0x000000005be60000,0x000000005bf60000)]
  0x000000005ccd9000 JavaThread "Build operations" [_thread_blocked, id=3708, stack(0x0000000060620000,0x0000000060720000)]
  0x000000005ccd2000 JavaThread "Cache worker for Artifact transforms cache (C:\Users\user145\.gradle\caches\transforms-1)" [_thread_blocked, id=1092, stack(0x0000000060520000,0x0000000060620000)]
  0x000000005ccd3000 JavaThread "Cache worker for file hash cache (E:\nagaraj\Casperon Projects\HandyPro\HandyPro User New\HandyPro\.gradle\4.6\fileHashes)" [_thread_blocked, id=512, stack(0x000000005ef80000,0x000000005f080000)]
  0x000000005ccd3800 JavaThread "Stdin handler" [_thread_blocked, id=2008, stack(0x000000005bb80000,0x000000005bc80000)]
  0x000000005992d000 JavaThread "Asynchronous log dispatcher for DefaultDaemonConnection: socket connection from /127.0.0.1:49386 to /127.0.0.1:49430" [_thread_blocked, id=204, stack(0x000000005bc80000,0x000000005bd80000)]
  0x000000005992b800 JavaThread "Cancel handler" [_thread_blocked, id=3108, stack(0x0000000058010000,0x0000000058110000)]
  0x0000000059928000 JavaThread "Handler for socket connection from /127.0.0.1:49386 to /127.0.0.1:49430" [_thread_in_native, id=2744, stack(0x000000005b230000,0x000000005b330000)]
  0x000000005c712800 JavaThread "pool-12-thread-1" [_thread_blocked, id=1448, stack(0x00000000650c0000,0x00000000651c0000)]
  0x000000005e563800 JavaThread "Exec process Thread 3" [_thread_blocked, id=1704, stack(0x00000000643c0000,0x00000000644c0000)]
  0x000000005e563000 JavaThread "Exec process Thread 2" [_thread_blocked, id=1328, stack(0x000000005bf80000,0x000000005c080000)]
  0x000000005e562000 JavaThread "Exec process" [_thread_blocked, id=3836, stack(0x000000005f3e0000,0x000000005f4e0000)]
  0x000000005ccd5800 JavaThread "Memory manager" [_thread_blocked, id=2104, stack(0x00000000612f0000,0x00000000613f0000)]
  0x0000000059927000 JavaThread "File lock request listener" [_thread_in_native, id=2120, stack(0x000000005c4b0000,0x000000005c5b0000)]
  0x0000000059926800 JavaThread "Cache worker for file hash cache (C:\Users\user145\.gradle\caches\4.6\fileHashes)" [_thread_blocked, id=2560, stack(0x000000005c100000,0x000000005c200000)]
  0x00000000597ab800 JavaThread "Daemon worker" [_thread_in_Java, id=3740, stack(0x000000005ba10000,0x000000005bb10000)]
  0x0000000059857000 JavaThread "Daemon" [_thread_blocked, id=3336, stack(0x000000005b6a0000,0x000000005b7a0000)]
  0x00000000597a0800 JavaThread "Daemon periodic checks" [_thread_blocked, id=520, stack(0x000000005b4a0000,0x000000005b5a0000)]
  0x00000000599c9800 JavaThread "Incoming local TCP Connector on port 49386" [_thread_in_native, id=900, stack(0x000000005b390000,0x000000005b490000)]
  0x0000000059639000 JavaThread "Daemon health stats" [_thread_blocked, id=3372, stack(0x000000005aec0000,0x000000005afc0000)]
  0x0000000057c94800 JavaThread "Service Thread" daemon [_thread_blocked, id=1884, stack(0x00000000583d0000,0x00000000584d0000)]
  0x0000000057c11000 JavaThread "C1 CompilerThread2" daemon [_thread_blocked, id=1444, stack(0x00000000576f0000,0x00000000577f0000)]
=>0x00000000562aa800 JavaThread "C2 CompilerThread1" daemon [_thread_in_native, id=2676, stack(0x0000000058110000,0x0000000058210000)]
  0x00000000562a3000 JavaThread "C2 CompilerThread0" daemon [_thread_in_native, id=2456, stack(0x0000000057b10000,0x0000000057c10000)]
  0x00000000562af000 JavaThread "Attach Listener" daemon [_thread_blocked, id=3756, stack(0x0000000057a10000,0x0000000057b10000)]
  0x00000000562ae000 JavaThread "Signal Dispatcher" daemon [_thread_blocked, id=3620, stack(0x0000000057820000,0x0000000057920000)]
  0x0000000056246800 JavaThread "Finalizer" daemon [_thread_blocked, id=3408, stack(0x00000000575f0000,0x00000000576f0000)]
  0x000000005623f800 JavaThread "Reference Handler" daemon [_thread_blocked, id=1976, stack(0x0000000057440000,0x0000000057540000)]
  0x00000000021bd800 JavaThread "main" [_thread_blocked, id=2264, stack(0x0000000002300000,0x0000000002400000)]

Other Threads:
  0x000000005623a000 VMThread [stack: 0x0000000057290000,0x0000000057390000] [id=3192]
  0x0000000057cb5800 WatcherThread [stack: 0x00000000585b0000,0x00000000586b0000] [id=2052]

VM state:not at safepoint (normal execution)

VM Mutex/Monitor currently owned by a thread: None

Heap:
 PSYoungGen      total 408576K, used 289966K [0x00000000e0000000, 0x0000000100000000, 0x0000000100000000)
  eden space 312320K, 79% used [0x00000000e0000000,0x00000000ef3c5000,0x00000000f3100000)
  from space 96256K, 41% used [0x00000000f3100000,0x00000000f5866950,0x00000000f8f00000)
  to   space 96768K, 0% used [0x00000000fa180000,0x00000000fa180000,0x0000000100000000)
 ParOldGen       total 501760K, used 396006K [0x00000000a0000000, 0x00000000bea00000, 0x00000000e0000000)
  object space 501760K, 78% used [0x00000000a0000000,0x00000000b82b99b0,0x00000000bea00000)
 Metaspace       used 88378K, capacity 93078K, committed 93312K, reserved 1130496K
  class space    used 11276K, capacity 12336K, committed 12416K, reserved 1048576K

Card table byte_map: [0x0000000011a90000,0x0000000011da0000] byte_map_base: 0x0000000011590000

Marking Bits: (ParMarkBitMap*) 0x000000006eeba5b0
 Begin Bits: [0x00000000125b0000, 0x0000000013db0000)
 End Bits:   [0x0000000013db0000, 0x00000000155b0000)

Polling page: 0x0000000000230000

CodeCache: size=245760Kb used=61963Kb max_used=61980Kb free=183797Kb
 bounds [0x00000000026d0000, 0x00000000063e0000, 0x00000000116d0000]
 total_blobs=18327 nmethods=17452 adapters=783
 compilation: enabled

Compilation events (10 events):
Event: 267.606 Thread 0x0000000057c11000 22971       3       com.google.common.collect.Maps$KeySet::contains (11 bytes)
Event: 267.606 Thread 0x0000000057c11000 nmethod 22971 0x0000000002d9e850 code [0x0000000002d9e9c0, 0x0000000002d9ec68]
Event: 267.608 Thread 0x0000000057c11000 22975       2       sun.util.calendar.BaseCalendar$Date::<init> (32 bytes)
Event: 267.608 Thread 0x0000000057c11000 nmethod 22975 0x0000000003773a10 code [0x0000000003773b60, 0x0000000003773cf0]
Event: 267.609 Thread 0x0000000057c11000 22977       2       sun.util.calendar.ZoneInfo::clone (15 bytes)
Event: 267.609 Thread 0x0000000057c11000 nmethod 22977 0x00000000052dce10 code [0x00000000052dcfa0, 0x00000000052dd278]
Event: 267.609 Thread 0x0000000057c11000 22978       2       java.util.TimeZone::getDefaultRef (32 bytes)
Event: 267.609 Thread 0x0000000057c11000 nmethod 22978 0x000000000390e390 code [0x000000000390e500, 0x000000000390e668]
Event: 267.638 Thread 0x0000000057c11000 22984   !   3       com.android.apkzlib.zip.ZFile::notify (128 bytes)
Event: 267.639 Thread 0x0000000057c11000 nmethod 22984 0x0000000003786110 code [0x0000000003786360, 0x0000000003787198]

GC Heap History (10 events):
Event: 236.318 GC heap before
{Heap before GC invocations=48 (full 5):
 PSYoungGen      total 389120K, used 276218K [0x00000000e0000000, 0x00000000ff480000, 0x0000000100000000)
  eden space 276992K, 99% used [0x00000000e0000000,0x00000000f0da6be8,0x00000000f0e80000)
  from space 112128K, 0% used [0x00000000f8700000,0x00000000f8718000,0x00000000ff480000)
  to   space 117760K, 0% used [0x00000000f0e80000,0x00000000f0e80000,0x00000000f8180000)
 ParOldGen       total 501760K, used 389690K [0x00000000a0000000, 0x00000000bea00000, 0x00000000e0000000)
  object space 501760K, 77% used [0x00000000a0000000,0x00000000b7c8eb38,0x00000000bea00000)
 Metaspace       used 84355K, capacity 87874K, committed 88064K, reserved 1126400K
  class space    used 10821K, capacity 11734K, committed 11776K, reserved 1048576K
Event: 236.321 GC heap after
Heap after GC invocations=48 (full 5):
 PSYoungGen      total 394752K, used 96K [0x00000000e0000000, 0x00000000ffc80000, 0x0000000100000000)
  eden space 276992K, 0% used [0x00000000e0000000,0x00000000e0000000,0x00000000f0e80000)
  from space 117760K, 0% used [0x00000000f0e80000,0x00000000f0e98000,0x00000000f8180000)
  to   space 113152K, 0% used [0x00000000f8e00000,0x00000000f8e00000,0x00000000ffc80000)
 ParOldGen       total 501760K, used 389722K [0x00000000a0000000, 0x00000000bea00000, 0x00000000e0000000)
  object space 501760K, 77% used [0x00000000a0000000,0x00000000b7c96b38,0x00000000bea00000)
 Metaspace       used 84355K, capacity 87874K, committed 88064K, reserved 1126400K
  class space    used 10821K, capacity 11734K, committed 11776K, reserved 1048576K
}
Event: 236.357 GC heap before
{Heap before GC invocations=49 (full 5):
 PSYoungGen      total 394752K, used 277028K [0x00000000e0000000, 0x00000000ffc80000, 0x0000000100000000)
  eden space 276992K, 99% used [0x00000000e0000000,0x00000000f0e710e0,0x00000000f0e80000)
  from space 117760K, 0% used [0x00000000f0e80000,0x00000000f0e98000,0x00000000f8180000)
  to   space 113152K, 0% used [0x00000000f8e00000,0x00000000f8e00000,0x00000000ffc80000)
 ParOldGen       total 501760K, used 389722K [0x00000000a0000000, 0x00000000bea00000, 0x00000000e0000000)
  object space 501760K, 77% used [0x00000000a0000000,0x00000000b7c96b38,0x00000000bea00000)
 Metaspace       used 84355K, capacity 87874K, committed 88064K, reserved 1126400K
  class space    used 10821K, capacity 11734K, committed 11776K, reserved 1048576K
Event: 236.360 GC heap after
Heap after GC invocations=49 (full 5):
 PSYoungGen      total 396288K, used 96K [0x00000000e0000000, 0x00000000ff280000, 0x0000000100000000)
  eden space 293376K, 0% used [0x00000000e0000000,0x00000000e0000000,0x00000000f1e80000)
  from space 102912K, 0% used [0x00000000f8e00000,0x00000000f8e18000,0x00000000ff280000)
  to   space 108544K, 0% used [0x00000000f1e80000,0x00000000f1e80000,0x00000000f8880000)
 ParOldGen       total 501760K, used 389746K [0x00000000a0000000, 0x00000000bea00000, 0x00000000e0000000)
  object space 501760K, 77% used [0x00000000a0000000,0x00000000b7c9cb38,0x00000000bea00000)
 Metaspace       used 84355K, capacity 87874K, committed 88064K, reserved 1126400K
  class space    used 10821K, capacity 11734K, committed 11776K, reserved 1048576K
}
Event: 236.401 GC heap before
{Heap before GC invocations=50 (full 5):
 PSYoungGen      total 396288K, used 292551K [0x00000000e0000000, 0x00000000ff280000, 0x0000000100000000)
  eden space 293376K, 99% used [0x00000000e0000000,0x00000000f1d99c20,0x00000000f1e80000)
  from space 102912K, 0% used [0x00000000f8e00000,0x00000000f8e18000,0x00000000ff280000)
  to   space 108544K, 0% used [0x00000000f1e80000,0x00000000f1e80000,0x00000000f8880000)
 ParOldGen       total 501760K, used 389746K [0x00000000a0000000, 0x00000000bea00000, 0x00000000e0000000)
  object space 501760K, 77% used [0x00000000a0000000,0x00000000b7c9cb38,0x00000000bea00000)
 Metaspace       used 84355K, capacity 87874K, committed 88064K, reserved 1126400K
  class space    used 10821K, capacity 11734K, committed 11776K, reserved 1048576K
Event: 236.404 GC heap after
Heap after GC invocations=50 (full 5):
 PSYoungGen      total 401920K, used 64K [0x00000000e0000000, 0x00000000ffb80000, 0x0000000100000000)
  eden space 293376K, 0% used [0x00000000e0000000,0x00000000e0000000,0x00000000f1e80000)
  from space 108544K, 0% used [0x00000000f1e80000,0x00000000f1e90000,0x00000000f8880000)
  to   space 103424K, 0% used [0x00000000f9680000,0x00000000f9680000,0x00000000ffb80000)
 ParOldGen       total 501760K, used 389770K [0x00000000a0000000, 0x00000000bea00000, 0x00000000e0000000)
  object space 501760K, 77% used [0x00000000a0000000,0x00000000b7ca2b38,0x00000000bea00000)
 Metaspace       used 84355K, capacity 87874K, committed 88064K, reserved 1126400K
  class space    used 10821K, capacity 11734K, committed 11776K, reserved 1048576K
}
Event: 260.526 GC heap before
{Heap before GC invocations=51 (full 5):
 PSYoungGen      total 401920K, used 293440K [0x00000000e0000000, 0x00000000ffb80000, 0x0000000100000000)
  eden space 293376K, 100% used [0x00000000e0000000,0x00000000f1e80000,0x00000000f1e80000)
  from space 108544K, 0% used [0x00000000f1e80000,0x00000000f1e90000,0x00000000f8880000)
  to   space 103424K, 0% used [0x00000000f9680000,0x00000000f9680000,0x00000000ffb80000)
 ParOldGen       total 501760K, used 389770K [0x00000000a0000000, 0x00000000bea00000, 0x00000000e0000000)
  object space 501760K, 77% used [0x00000000a0000000,0x00000000b7ca2b38,0x00000000bea00000)
 Metaspace       used 87096K, capacity 90816K, committed 91008K, reserved 1128448K
  class space    used 11123K, capacity 12063K, committed 12160K, reserved 1048576K
Event: 260.538 GC heap after
Heap after GC invocations=51 (full 5):
 PSYoungGen      total 400896K, used 12616K [0x00000000e0000000, 0x00000000fed00000, 0x0000000100000000)
  eden space 312320K, 0% used [0x00000000e0000000,0x00000000e0000000,0x00000000f3100000)
  from space 88576K, 14% used [0x00000000f9680000,0x00000000fa2d20b0,0x00000000fed00000)
  to   space 96256K, 0% used [0x00000000f3100000,0x00000000f3100000,0x00000000f8f00000)
 ParOldGen       total 501760K, used 389802K [0x00000000a0000000, 0x00000000bea00000, 0x00000000e0000000)
  object space 501760K, 77% used [0x00000000a0000000,0x00000000b7caab38,0x00000000bea00000)
 Metaspace       used 87096K, capacity 90816K, committed 91008K, reserved 1128448K
  class space    used 11123K, capacity 12063K, committed 12160K, reserved 1048576K
}
Event: 264.847 GC heap before
{Heap before GC invocations=52 (full 5):
 PSYoungGen      total 400896K, used 324936K [0x00000000e0000000, 0x00000000fed00000, 0x0000000100000000)
  eden space 312320K, 100% used [0x00000000e0000000,0x00000000f3100000,0x00000000f3100000)
  from space 88576K, 14% used [0x00000000f9680000,0x00000000fa2d20b0,0x00000000fed00000)
  to   space 96256K, 0% used [0x00000000f3100000,0x00000000f3100000,0x00000000f8f00000)
 ParOldGen       total 501760K, used 389802K [0x00000000a0000000, 0x00000000bea00000, 0x00000000e0000000)
  object space 501760K, 77% used [0x00000000a0000000,0x00000000b7caab38,0x00000000bea00000)
 Metaspace       used 88278K, capacity 92910K, committed 93056K, reserved 1130496K
  class space    used 11260K, capacity 12308K, committed 12416K, reserved 1048576K
Event: 264.909 GC heap after
Heap after GC invocations=52 (full 5):
 PSYoungGen      total 408576K, used 40346K [0x00000000e0000000, 0x0000000100000000, 0x0000000100000000)
  eden space 312320K, 0% used [0x00000000e0000000,0x00000000e0000000,0x00000000f3100000)
  from space 96256K, 41% used [0x00000000f3100000,0x00000000f5866950,0x00000000f8f00000)
  to   space 96768K, 0% used [0x00000000fa180000,0x00000000fa180000,0x0000000100000000)
 ParOldGen       total 501760K, used 396006K [0x00000000a0000000, 0x00000000bea00000, 0x00000000e0000000)
  object space 501760K, 78% used [0x00000000a0000000,0x00000000b82b99b0,0x00000000bea00000)
 Metaspace       used 88278K, capacity 92910K, committed 93056K, reserved 1130496K
  class space    used 11260K, capacity 12308K, committed 12416K, reserved 1048576K
}

Deoptimization events (10 events):
Event: 264.299 Thread 0x000000005c713000 Uncommon trap: reason=bimorphic action=maybe_recompile pc=0x000000000578c7c0 method=com.sun.org.apache.xerces.internal.parsers.AbstractSAXParser.startNamespaceMapping()V @ 65
Event: 264.299 Thread 0x000000005c713000 Uncommon trap: reason=bimorphic action=maybe_recompile pc=0x0000000003620998 method=com.sun.org.apache.xerces.internal.parsers.AbstractSAXParser.endNamespaceMapping()V @ 35
Event: 264.398 Thread 0x000000005e561800 Uncommon trap: reason=bimorphic action=maybe_recompile pc=0x0000000005572fa0 method=java.lang.ThreadLocal.setInitialValue()Ljava/lang/Object; @ 31
Event: 264.596 Thread 0x000000005c713000 Uncommon trap: reason=unstable_if action=reinterpret pc=0x0000000005f322f4 method=com.sun.org.apache.xerces.internal.impl.XMLEntityScanner.arrangeCapacity(IZ)Z @ 59
Event: 264.700 Thread 0x000000005c713000 Uncommon trap: reason=unstable_if action=reinterpret pc=0x00000000048efd4c method=com.sun.org.apache.xerces.internal.dom.DeferredElementNSImpl.synchronizeData()V @ 118
Event: 264.749 Thread 0x000000005c713000 Uncommon trap: reason=null_check action=make_not_entrant pc=0x0000000004d08b78 method=com.sun.org.apache.xerces.internal.dom.NamedNodeMapImpl.findNamePoint(Ljava/lang/String;Ljava/lang/String;)I @ 76
Event: 264.925 Thread 0x000000005c713000 Uncommon trap: reason=bimorphic action=maybe_recompile pc=0x0000000004ab4650 method=java.util.concurrent.ConcurrentHashMap.putVal(Ljava/lang/Object;Ljava/lang/Object;Z)Ljava/lang/Object; @ 192
Event: 264.963 Thread 0x000000005c713000 Uncommon trap: reason=class_check action=maybe_recompile pc=0x0000000004ef9e7c method=com.android.ide.common.res2.NodeUtils.duplicateNode(Lorg/w3c/dom/Document;Lorg/w3c/dom/Node;)Lorg/w3c/dom/Node; @ 91
Event: 264.963 Thread 0x000000005c713000 Uncommon trap: reason=class_check action=maybe_recompile pc=0x0000000004ef9e7c method=com.android.ide.common.res2.NodeUtils.duplicateNode(Lorg/w3c/dom/Document;Lorg/w3c/dom/Node;)Lorg/w3c/dom/Node; @ 91
Event: 267.377 Thread 0x000000005c713000 Uncommon trap: reason=null_check action=make_not_entrant pc=0x00000000063ccca4 method=org.gradle.api.internal.changedetection.state.DefaultFileSystemMirror.getDirectoryTree(Ljava/lang/String;)Lorg/gradle/api/internal/changedetection/state/FileTreeSnapshot;ݥΎȄp@

Internal exceptions (10 events):
Event: 259.852 Thread 0x00000000597ab800 Exception <a 'sun/nio/fs/WindowsException'> (0x00000000e9a57950) thrown at [C:\re\workspace\8-2-build-windows-amd64-cygwin\jdk8u60\4407\hotspot\src\share\vm\prims\jni.cpp, line 709]
Event: 259.852 Thread 0x00000000597ab800 Exception <a 'sun/nio/fs/WindowsException'> (0x00000000e9a58600) thrown at [C:\re\workspace\8-2-build-windows-amd64-cygwin\jdk8u60\4407\hotspot\src\share\vm\prims\jni.cpp, line 709]
Event: 259.852 Thread 0x00000000597ab800 Exception <a 'sun/nio/fs/WindowsException'> (0x00000000e9a5a2e0) thrown at [C:\re\workspace\8-2-build-windows-amd64-cygwin\jdk8u60\4407\hotspot\src\share\vm\prims\jni.cpp, line 709]
Event: 259.852 Thread 0x00000000597ab800 Exception <a 'sun/nio/fs/WindowsException'> (0x00000000e9a5b1b8) thrown at [C:\re\workspace\8-2-build-windows-amd64-cygwin\jdk8u60\4407\hotspot\src\share\vm\prims\jni.cpp, line 709]
Event: 260.279 Thread 0x00000000597ab800 Implicit null exception at 0x000000000550ec1a to 0x000000000550d1ad
Event: 260.279 Thread 0x00000000597ab800 Implicit null exception at 0x00000000052b7730 to 0x00000000052b7831
Event: 262.091 Thread 0x00000000597ab800 Exception <a 'java/lang/reflect/InvocationTargetException'> (0x00000000e917da08) thrown at [C:\re\workspace\8-2-build-windows-amd64-cygwin\jdk8u60\4407\hotspot\src\share\vm\runtime\reflection.cpp, line 1092]
Event: 262.097 Thread 0x00000000597ab800 Exception <a 'java/lang/reflect/InvocationTargetException'> (0x00000000e91a9a98) thrown at [C:\re\workspace\8-2-build-windows-amd64-cygwin\jdk8u60\4407\hotspot\src\share\vm\runtime\reflection.cpp, line 1092]
Event: 264.749 Thread 0x000000005c713000 Implicit null exception at 0x0000000004d076ae to 0x0000000004d08b51
Event: 267.377 Thread 0x000000005c713000 Implicit null exception at 0x00000000063cac43 to 0x00000000063ccc99

Events (10 events):
Event: 267.583 Executing VM operation: RevokeBias
Event: 267.583 Executing VM operation: RevokeBias done
Event: 267.583 Executing VM operation: RevokeBias
Event: 267.584 Executing VM operation: RevokeBias done
Event: 267.584 Executing VM operation: RevokeBias
Event: 267.584 Executing VM operation: RevokeBias done
Event: 267.592 Executing VM operation: RevokeBias
Event: 267.592 Executing VM operation: RevokeBias done
Event: 267.592 Executing VM operation: BulkRevokeBias
Event: 267.593 Executing VM operation: BulkRevokeBias done


Dynamic libraries:
0x000000013fac0000 - 0x000000013faf7000 	C:\Program Files\Java\jdk1.8.0_60\bin\java.exe
0x0000000077570000 - 0x0000000077719000 	C:\Windows\SYSTEM32\ntdll.dll
0x0000000077450000 - 0x000000007756f000 	C:\Windows\system32\kernel32.dll
0x000007fefd670000 - 0x000007fefd6db000 	C:\Windows\system32\KERNELBASE.dll
0x000007fefd810000 - 0x000007fefd8eb000 	C:\Windows\system32\ADVAPI32.dll
0x000007fefdb00000 - 0x000007fefdb9f000 	C:\Windows\system32\msvcrt.dll
0x000007fefd7f0000 - 0x000007fefd80f000 	C:\Windows\SYSTEM32\sechost.dll
0x000007fefdf90000 - 0x000007fefe0bd000 	C:\Windows\system32\RPCRT4.dll
0x0000000077350000 - 0x000000007744a000 	C:\Windows\system32\USER32.dll
0x000007fefe0c0000 - 0x000007fefe127000 	C:\Windows\system32\GDI32.dll
0x000007fefd7e0000 - 0x000007fefd7ee000 	C:\Windows\system32\LPK.dll
0x000007fefd710000 - 0x000007fefd7d9000 	C:\Windows\system32\USP10.dll
0x000007fefbab0000 - 0x000007fefbca4000 	C:\Windows\WinSxS\amd64_microsoft.windows.common-controls_6595b64144ccf1df_6.0.7601.17514_none_fa396087175ac9ac\COMCTL32.dll
0x000007fefe2c0000 - 0x000007fefe331000 	C:\Windows\system32\SHLWAPI.dll
0x000007fefd6e0000 - 0x000007fefd70e000 	C:\Windows\system32\IMM32.DLL
0x000007feff0d0000 - 0x000007feff1d9000 	C:\Windows\system32\MSCTF.dll
0x000000006ef40000 - 0x000000006f012000 	C:\Program Files\Java\jdk1.8.0_60\jre\bin\msvcr100.dll
0x000000006e6b0000 - 0x000000006ef39000 	C:\Program Files\Java\jdk1.8.0_60\jre\bin\server\jvm.dll
0x000007fef71b0000 - 0x000007fef71b9000 	C:\Windows\system32\WSOCK32.dll
0x000007fefdea0000 - 0x000007fefdeed000 	C:\Windows\system32\WS2_32.dll
0x000007feff1e0000 - 0x000007feff1e8000 	C:\Windows\system32\NSI.dll
0x000007fefb2f0000 - 0x000007fefb32b000 	C:\Windows\system32\WINMM.dll
0x000007fefc400000 - 0x000007fefc40c000 	C:\Windows\system32\VERSION.dll
0x0000000077730000 - 0x0000000077737000 	C:\Windows\system32\PSAPI.DLL
0x000000006e6a0000 - 0x000000006e6af000 	C:\Program Files\Java\jdk1.8.0_60\jre\bin\verify.dll
0x000000006e670000 - 0x000000006e699000 	C:\Program Files\Java\jdk1.8.0_60\jre\bin\java.dll
0x000000006e650000 - 0x000000006e666000 	C:\Program Files\Java\jdk1.8.0_60\jre\bin\zip.dll
0x000007fefe340000 - 0x000007feff0c8000 	C:\Windows\system32\SHELL32.dll
0x000007fefd8f0000 - 0x000007fefdaf3000 	C:\Windows\system32\ole32.dll
0x000007fefd330000 - 0x000007fefd33f000 	C:\Windows\system32\profapi.dll
0x000000006e630000 - 0x000000006e64a000 	C:\Program Files\Java\jdk1.8.0_60\jre\bin\net.dll
0x000007fefcac0000 - 0x000007fefcb15000 	C:\Windows\system32\mswsock.dll
0x000007fefcab0000 - 0x000007fefcab7000 	C:\Windows\System32\wship6.dll
0x000000006e610000 - 0x000000006e621000 	C:\Program Files\Java\jdk1.8.0_60\jre\bin\nio.dll
0x000007feef370000 - 0x000007feef38e000 	C:\Users\user145\.gradle\native\25\windows-amd64\native-platform.dll
0x000000006e600000 - 0x000000006e60d000 	C:\Program Files\Java\jdk1.8.0_60\jre\bin\management.dll
0x000007fefcb20000 - 0x000007fefcb37000 	C:\Windows\system32\CRYPTSP.dll
0x000007fefc820000 - 0x000007fefc867000 	C:\Windows\system32\rsaenh.dll
0x000007fefd3d0000 - 0x000007fefd3ee000 	C:\Windows\system32\USERENV.dll
0x000007fefd1c0000 - 0x000007fefd1cf000 	C:\Windows\system32\CRYPTBASE.dll
0x000007fefafa0000 - 0x000007fefafc7000 	C:\Windows\system32\IPHLPAPI.DLL
0x000007fefaf90000 - 0x000007fefaf9b000 	C:\Windows\system32\WINNSI.DLL
0x000007fefaec0000 - 0x000007fefaed1000 	C:\Windows\system32\dhcpcsvc6.DLL
0x000007fefaea0000 - 0x000007fefaeb8000 	C:\Windows\system32\dhcpcsvc.DLL
0x000007fefd160000 - 0x000007fefd1b7000 	C:\Windows\system32\apphelp.dll
0x000000006e5d0000 - 0x000000006e5f4000 	C:\Program Files\Java\jdk1.8.0_60\jre\bin\sunec.dll
0x000007fefc4d0000 - 0x000007fefc4d7000 	C:\Windows\System32\wshtcpip.dll
0x000007fefc940000 - 0x000007fefc99b000 	C:\Windows\system32\DNSAPI.dll
0x000007fefa510000 - 0x000007fefa518000 	C:\Windows\system32\rasadhlp.dll
0x000007fefaf00000 - 0x000007fefaf53000 	C:\Windows\System32\fwpuclnt.dll
0x000007fefb520000 - 0x000007fefb535000 	C:\Windows\system32\NLAapi.dll
0x000007fefa4d0000 - 0x000007fefa4e5000 	C:\Windows\system32\napinsp.dll
0x000007fefa4f0000 - 0x000007fefa509000 	C:\Windows\system32\pnrpnsp.dll
0x000007fefa4c0000 - 0x000007fefa4cb000 	C:\Windows\System32\winrnr.dll
0x000007feed3f0000 - 0x000007feed515000 	C:\Windows\system32\dbghelp.dll

VM Arguments:
jvm_args: -Xmx1536m -Dfile.encoding=windows-1252 -Duser.country=US -Duser.language=en -Duser.variant 
java_command: org.gradle.launcher.daemon.bootstrap.GradleDaemon 4.6
java_class_path (initial): C:\Users\user145\.gradle\wrapper\dists\gradle-4.6-all\bcst21l2brirad8k2ben1letg\gradle-4.6\lib\gradle-launcher-4.6.jar
Launcher Type: SUN_STANDARD

Environment Variables:
PATH=C:\ProgramData\Oracle\Java\javapath;C:\Windows\system32;C:\Windows;C:\Windows\System32\Wbem;C:\Windows\System32\WindowsPowerShell\v1.0\;C:\Program Files (x86)\Skype\Phone\;C:\Program Files\TortoiseSVN\bin;C:\Program Files\nodejs\;C:\Users\user145\AppData\Roaming\npm
USERNAME=user145
OS=Windows_NT
PROCESSOR_IDENTIFIER=Intel64 Family 6 Model 60 Stepping 3, GenuineIntel



---------------  S Y S T E M  ---------------

OS: Windows 7 , 64 bit Build 7601 (6.1.7601.18015)

CPU:total 4 (2 cores per cpu, 2 threads per core) family 6 model 60 stepping 3, cmov, cx8, fxsr, mmx, sse, sse2, sse3, ssse3, sse4.1, sse4.2, popcnt, avx, avx2, aes, clmul, erms, lzcnt, ht, tsc, tscinvbit, bmi1, bmi2

Memory: 4k page, physical 8285820k(3715964k free), swap 16569776k(11902584k free)

vm_info: Java HotSpot(TM) 64-Bit Server VM (25.60-b23) for windows-amd64 JRE (1.8.0_60-b27), built on Aug  4 2015 11:06:27 by "java_re" with MS VC++ 10.0 (VS2010)

time: Tue Feb 26 10:00:37 2019
elapsed time: 267 seconds (0d 0h 4m 27s)

